…
2.  Extract a data frame of all genes with p-values lower than 0.05.  


```r
(signif <- filter(ttest, pvalue < 0.05) %>%
   arrange(pvalue))
```

```
## # A tibble: 2,505 x 2
##    hgnc_symbol        pvalue
##    <chr>               <dbl>
##  1 CLDN2       0.00000000591
##  2 WLS         0.0000000108 
##  3 BICDL1      0.0000000185 
##  4 HACD3       0.0000000235 
##  5 P2RX7       0.000000116  
##  6 AP1S2       0.000000170  
##  7 SUCNR1      0.000000242  
##  8 C1orf162    0.000000288  
##  9 EPB41L5     0.000000478  
## 10 PAQR7       0.000000849  
## # ... with 2,495 more rows
```
…
