…
# Dataset & design

```r
expressionMatrix <- read.table(file = "./data/GSE4051_data.tsv", sep = "\t", quote = "", stringsAsFactors = F)

expressionMatrix <- rownames_to_column(expressionMatrix, var = "gene")
expressionMatrix <- as.tibble(expressionMatrix) 

expressionMatrix
```

```
## # A tibble: 29,949 x 40
##    gene  Sample_20 Sample_21 Sample_22 Sample_23 Sample_16 Sample_17
##    <chr>     <dbl>     <dbl>     <dbl>     <dbl>     <dbl>     <dbl>
##  1 1415~      7.24      7.41      7.17      7.07      7.38      7.34
##  2 1415~      9.48     10.0       9.85     10.1       7.64     10.0 
##  3 1415~     10.0      10.0       9.91      9.91      8.42     10.2 
##  4 1415~      8.36      8.37      8.40      8.49      8.36      8.37
##  5 1415~      8.59      8.62      8.52      8.64      8.51      8.89
##  6 1415~      9.59      9.72      9.71      9.7       9.66      9.61
##  7 1415~      9.68     10.4       9.87     10.2       8.04     10.0 
##  8 1415~      7.24      7.90      7.48      7.49      7.34      7.34
##  9 1415~     11.7      11.5      11.5      11.6      10.5      11.8 
## 10 1415~      9.21     10.1       9.82      9.92      8.22      9.60
## # ... with 29,939 more rows, and 33 more variables: Sample_6 <dbl>,
## #   Sample_24 <dbl>, Sample_25 <dbl>, Sample_26 <dbl>, Sample_27 <dbl>,
## #   Sample_14 <dbl>, Sample_3 <dbl>, Sample_5 <dbl>, Sample_8 <dbl>,
## #   Sample_28 <dbl>, Sample_29 <dbl>, Sample_30 <dbl>, Sample_31 <dbl>,
## #   Sample_1 <dbl>, Sample_10 <dbl>, Sample_4 <dbl>, Sample_7 <dbl>,
## #   Sample_32 <dbl>, Sample_33 <dbl>, Sample_34 <dbl>, Sample_35 <dbl>,
## #   Sample_13 <dbl>, Sample_15 <dbl>, Sample_18 <dbl>, Sample_19 <dbl>,
## #   Sample_36 <dbl>, Sample_37 <dbl>, Sample_38 <dbl>, Sample_39 <dbl>,
## #   Sample_11 <dbl>, Sample_12 <dbl>, Sample_2 <dbl>, Sample_9 <dbl>
```


```r
samplesMetadata <- read.table("./data/GSE4051_design.txt",  sep = "\t", header = TRUE, stringsAsFactors = FALSE)

samplesMetadata <- samplesMetadata %>% as_tibble() 

# define our own column names for samples metadata for clarity
names(samplesMetadata) <- c("sample_id", "sample_number", "dev_stage", "genotype")

samplesMetadata
```

```
## # A tibble: 39 x 4
##    sample_id sample_number dev_stage genotype
##    <chr>             <int> <chr>     <chr>   
##  1 Sample_20            20 E16       wt      
##  2 Sample_21            21 E16       wt      
##  3 Sample_22            22 E16       wt      
##  4 Sample_23            23 E16       wt      
##  5 Sample_16            16 E16       NrlKO   
##  6 Sample_17            17 E16       NrlKO   
##  7 Sample_6              6 E16       NrlKO   
##  8 Sample_24            24 P2        wt      
##  9 Sample_25            25 P2        wt      
## 10 Sample_26            26 P2        wt      
## # ... with 29 more rows
```
…
